^C:\USERS\HIROKI\DESKTOP\BASECROSS-MASTER\SIMPLSAMPLE015\DXSHARED\SHADERS\PSPCSPRITE.HLSL
C:\WINDOWS\GLOBALIZATION\SORTING\SORTDEFAULT.NLS
C:\PROGRAM FILES (X86)\WINDOWS KITS\8.1\BIN\X86\FXC.EXE
C:\USERS\HIROKI\DESKTOP\BASECROSS-MASTER\SIMPLSAMPLE015\DXSHARED\SHADERS\INCSTRUCTS.HLSLI
^C:\USERS\HIROKI\DESKTOP\BASECROSS-MASTER\SIMPLSAMPLE015\DXSHARED\SHADERS\PSPCSTATIC.HLSL
C:\WINDOWS\GLOBALIZATION\SORTING\SORTDEFAULT.NLS
C:\PROGRAM FILES (X86)\WINDOWS KITS\8.1\BIN\X86\FXC.EXE
C:\USERS\HIROKI\DESKTOP\BASECROSS-MASTER\SIMPLSAMPLE015\DXSHARED\SHADERS\INCSTRUCTS.HLSLI
^C:\USERS\HIROKI\DESKTOP\BASECROSS-MASTER\SIMPLSAMPLE015\DXSHARED\SHADERS\PSPCTSPRITE.HLSL
C:\WINDOWS\GLOBALIZATION\SORTING\SORTDEFAULT.NLS
C:\PROGRAM FILES (X86)\WINDOWS KITS\8.1\BIN\X86\FXC.EXE
C:\USERS\HIROKI\DESKTOP\BASECROSS-MASTER\SIMPLSAMPLE015\DXSHARED\SHADERS\INCSTRUCTS.HLSLI
^C:\USERS\HIROKI\DESKTOP\BASECROSS-MASTER\SIMPLSAMPLE015\DXSHARED\SHADERS\PSPCTSTATIC.HLSL
C:\WINDOWS\GLOBALIZATION\SORTING\SORTDEFAULT.NLS
C:\PROGRAM FILES (X86)\WINDOWS KITS\8.1\BIN\X86\FXC.EXE
C:\USERS\HIROKI\DESKTOP\BASECROSS-MASTER\SIMPLSAMPLE015\DXSHARED\SHADERS\INCSTRUCTS.HLSLI
^C:\USERS\HIROKI\DESKTOP\BASECROSS-MASTER\SIMPLSAMPLE015\DXSHARED\SHADERS\PSPNTSTATIC.HLSL
C:\WINDOWS\GLOBALIZATION\SORTING\SORTDEFAULT.NLS
C:\PROGRAM FILES (X86)\WINDOWS KITS\8.1\BIN\X86\FXC.EXE
C:\USERS\HIROKI\DESKTOP\BASECROSS-MASTER\SIMPLSAMPLE015\DXSHARED\SHADERS\INCSTRUCTS.HLSLI
^C:\USERS\HIROKI\DESKTOP\BASECROSS-MASTER\SIMPLSAMPLE015\DXSHARED\SHADERS\PSPNTSTATICSHADOW.HLSL
C:\WINDOWS\GLOBALIZATION\SORTING\SORTDEFAULT.NLS
C:\PROGRAM FILES (X86)\WINDOWS KITS\8.1\BIN\X86\FXC.EXE
C:\USERS\HIROKI\DESKTOP\BASECROSS-MASTER\SIMPLSAMPLE015\DXSHARED\SHADERS\INCSTRUCTS.HLSLI
^C:\USERS\HIROKI\DESKTOP\BASECROSS-MASTER\SIMPLSAMPLE015\DXSHARED\SHADERS\PSPNTSTATICSHADOW2.HLSL
C:\WINDOWS\GLOBALIZATION\SORTING\SORTDEFAULT.NLS
C:\PROGRAM FILES (X86)\WINDOWS KITS\8.1\BIN\X86\FXC.EXE
C:\USERS\HIROKI\DESKTOP\BASECROSS-MASTER\SIMPLSAMPLE015\DXSHARED\SHADERS\INCSTRUCTS.HLSLI
^C:\USERS\HIROKI\DESKTOP\BASECROSS-MASTER\SIMPLSAMPLE015\DXSHARED\SHADERS\PSPTSPRITE.HLSL
C:\WINDOWS\GLOBALIZATION\SORTING\SORTDEFAULT.NLS
C:\PROGRAM FILES (X86)\WINDOWS KITS\8.1\BIN\X86\FXC.EXE
C:\USERS\HIROKI\DESKTOP\BASECROSS-MASTER\SIMPLSAMPLE015\DXSHARED\SHADERS\INCSTRUCTS.HLSLI
^C:\USERS\HIROKI\DESKTOP\BASECROSS-MASTER\SIMPLSAMPLE015\DXSHARED\SHADERS\VSPCSPRITE.HLSL
C:\WINDOWS\GLOBALIZATION\SORTING\SORTDEFAULT.NLS
C:\PROGRAM FILES (X86)\WINDOWS KITS\8.1\BIN\X86\FXC.EXE
C:\USERS\HIROKI\DESKTOP\BASECROSS-MASTER\SIMPLSAMPLE015\DXSHARED\SHADERS\INCSTRUCTS.HLSLI
^C:\USERS\HIROKI\DESKTOP\BASECROSS-MASTER\SIMPLSAMPLE015\DXSHARED\SHADERS\VSPCSTATIC.HLSL
C:\WINDOWS\GLOBALIZATION\SORTING\SORTDEFAULT.NLS
C:\PROGRAM FILES (X86)\WINDOWS KITS\8.1\BIN\X86\FXC.EXE
C:\USERS\HIROKI\DESKTOP\BASECROSS-MASTER\SIMPLSAMPLE015\DXSHARED\SHADERS\INCSTRUCTS.HLSLI
^C:\USERS\HIROKI\DESKTOP\BASECROSS-MASTER\SIMPLSAMPLE015\DXSHARED\SHADERS\VSPCTINSTANCE.HLSL
C:\WINDOWS\GLOBALIZATION\SORTING\SORTDEFAULT.NLS
C:\PROGRAM FILES (X86)\WINDOWS KITS\8.1\BIN\X86\FXC.EXE
C:\USERS\HIROKI\DESKTOP\BASECROSS-MASTER\SIMPLSAMPLE015\DXSHARED\SHADERS\INCSTRUCTS.HLSLI
^C:\USERS\HIROKI\DESKTOP\BASECROSS-MASTER\SIMPLSAMPLE015\DXSHARED\SHADERS\VSPCTSPRITE.HLSL
C:\WINDOWS\GLOBALIZATION\SORTING\SORTDEFAULT.NLS
C:\PROGRAM FILES (X86)\WINDOWS KITS\8.1\BIN\X86\FXC.EXE
C:\USERS\HIROKI\DESKTOP\BASECROSS-MASTER\SIMPLSAMPLE015\DXSHARED\SHADERS\INCSTRUCTS.HLSLI
^C:\USERS\HIROKI\DESKTOP\BASECROSS-MASTER\SIMPLSAMPLE015\DXSHARED\SHADERS\VSPCTSTATIC.HLSL
C:\WINDOWS\GLOBALIZATION\SORTING\SORTDEFAULT.NLS
C:\PROGRAM FILES (X86)\WINDOWS KITS\8.1\BIN\X86\FXC.EXE
C:\USERS\HIROKI\DESKTOP\BASECROSS-MASTER\SIMPLSAMPLE015\DXSHARED\SHADERS\INCSTRUCTS.HLSLI
^C:\USERS\HIROKI\DESKTOP\BASECROSS-MASTER\SIMPLSAMPLE015\DXSHARED\SHADERS\VSPNTSTATIC.HLSL
C:\WINDOWS\GLOBALIZATION\SORTING\SORTDEFAULT.NLS
C:\PROGRAM FILES (X86)\WINDOWS KITS\8.1\BIN\X86\FXC.EXE
C:\USERS\HIROKI\DESKTOP\BASECROSS-MASTER\SIMPLSAMPLE015\DXSHARED\SHADERS\INCSTRUCTS.HLSLI
^C:\USERS\HIROKI\DESKTOP\BASECROSS-MASTER\SIMPLSAMPLE015\DXSHARED\SHADERS\VSPNTSTATICSHADOW.HLSL
C:\WINDOWS\GLOBALIZATION\SORTING\SORTDEFAULT.NLS
C:\PROGRAM FILES (X86)\WINDOWS KITS\8.1\BIN\X86\FXC.EXE
C:\USERS\HIROKI\DESKTOP\BASECROSS-MASTER\SIMPLSAMPLE015\DXSHARED\SHADERS\INCSTRUCTS.HLSLI
^C:\USERS\HIROKI\DESKTOP\BASECROSS-MASTER\SIMPLSAMPLE015\DXSHARED\SHADERS\VSPTSPRITE.HLSL
C:\WINDOWS\GLOBALIZATION\SORTING\SORTDEFAULT.NLS
C:\PROGRAM FILES (X86)\WINDOWS KITS\8.1\BIN\X86\FXC.EXE
C:\USERS\HIROKI\DESKTOP\BASECROSS-MASTER\SIMPLSAMPLE015\DXSHARED\SHADERS\INCSTRUCTS.HLSLI
^C:\USERS\HIROKI\DESKTOP\BASECROSS-MASTER\SIMPLSAMPLE015\DXSHARED\SHADERS\VSSHADOWMAP.HLSL
C:\WINDOWS\GLOBALIZATION\SORTING\SORTDEFAULT.NLS
C:\PROGRAM FILES (X86)\WINDOWS KITS\8.1\BIN\X86\FXC.EXE
C:\USERS\HIROKI\DESKTOP\BASECROSS-MASTER\SIMPLSAMPLE015\DXSHARED\SHADERS\INCSHADOWMAP.HLSLI
^C:\USERS\HIROKI\DESKTOP\BASECROSS-MASTER\SIMPLSAMPLE015\DXSHARED\SHADERS\VSSHADOWMAPBONE.HLSL
C:\WINDOWS\GLOBALIZATION\SORTING\SORTDEFAULT.NLS
C:\PROGRAM FILES (X86)\WINDOWS KITS\8.1\BIN\X86\FXC.EXE
C:\USERS\HIROKI\DESKTOP\BASECROSS-MASTER\SIMPLSAMPLE015\DXSHARED\SHADERS\INCSHADOWMAP.HLSLI
