^C:\USERS\HIROKI\DESKTOP\BASECROSS-MASTER\SIMPLSAMPLE015\BASECROSSDX11\STDAFX.CPP
/c /I"C:\USERS\HIROKI\DESKTOP\BASECROSS-MASTER\SIMPLSAMPLE015\BASECROSSDX11\\" /I"C:\USERS\HIROKI\DESKTOP\BASECROSS-MASTER\LIBS\BASELIB\DX11LIB\\" /I"C:\USERS\HIROKI\DESKTOP\BASECROSS-MASTER\LIBS\BASELIB\DXLIB\\" /I"C:\USERS\HIROKI\DESKTOP\BASECROSS-MASTER\SIMPLSAMPLE015\DXSHARED\\" /ZI /nologo /W3 /WX- /sdl /Od /Oy- /D WIN32 /D _DEBUG /D _WINDOWS /D _UNICODE /D UNICODE /Gm /EHsc /RTC1 /MTd /GS /arch:SSE2 /fp:fast /Zc:wchar_t /Zc:forScope /Zc:inline /Yc"stdafx.h" /Fp"C:\USERS\HIROKI\DESKTOP\BASECROSS-MASTER\SIMPLSAMPLE015\TEMP\DX11\DEBUG\BASECROSSDX11.PCH" /Fo"C:\USERS\HIROKI\DESKTOP\BASECROSS-MASTER\SIMPLSAMPLE015\TEMP\DX11\DEBUG\\" /Fd"C:\USERS\HIROKI\DESKTOP\BASECROSS-MASTER\SIMPLSAMPLE015\TEMP\DX11\DEBUG\VC140.PDB" /Gd /TP /analyze- C:\USERS\HIROKI\DESKTOP\BASECROSS-MASTER\SIMPLSAMPLE015\BASECROSSDX11\STDAFX.CPP
^C:\USERS\HIROKI\DESKTOP\BASECROSS-MASTER\LIBS\BASELIB\DX11LIB\DEVICERESOURCES.CPP
/c /I"C:\USERS\HIROKI\DESKTOP\BASECROSS-MASTER\SIMPLSAMPLE015\BASECROSSDX11\\" /I"C:\USERS\HIROKI\DESKTOP\BASECROSS-MASTER\LIBS\BASELIB\DX11LIB\\" /I"C:\USERS\HIROKI\DESKTOP\BASECROSS-MASTER\LIBS\BASELIB\DXLIB\\" /I"C:\USERS\HIROKI\DESKTOP\BASECROSS-MASTER\SIMPLSAMPLE015\DXSHARED\\" /ZI /nologo /W3 /WX- /sdl /Od /Oy- /D WIN32 /D _DEBUG /D _WINDOWS /D _UNICODE /D UNICODE /Gm /EHsc /RTC1 /MTd /GS /arch:SSE2 /fp:fast /Zc:wchar_t /Zc:forScope /Zc:inline /Yu"stdafx.h" /Fp"C:\USERS\HIROKI\DESKTOP\BASECROSS-MASTER\SIMPLSAMPLE015\TEMP\DX11\DEBUG\BASECROSSDX11.PCH" /Fo"C:\USERS\HIROKI\DESKTOP\BASECROSS-MASTER\SIMPLSAMPLE015\TEMP\DX11\DEBUG\\" /Fd"C:\USERS\HIROKI\DESKTOP\BASECROSS-MASTER\SIMPLSAMPLE015\TEMP\DX11\DEBUG\VC140.PDB" /Gd /TP /analyze- C:\USERS\HIROKI\DESKTOP\BASECROSS-MASTER\LIBS\BASELIB\DX11LIB\DEVICERESOURCES.CPP
^C:\USERS\HIROKI\DESKTOP\BASECROSS-MASTER\LIBS\BASELIB\DX11LIB\VERTEXHELPER.CPP
/c /I"C:\USERS\HIROKI\DESKTOP\BASECROSS-MASTER\SIMPLSAMPLE015\BASECROSSDX11\\" /I"C:\USERS\HIROKI\DESKTOP\BASECROSS-MASTER\LIBS\BASELIB\DX11LIB\\" /I"C:\USERS\HIROKI\DESKTOP\BASECROSS-MASTER\LIBS\BASELIB\DXLIB\\" /I"C:\USERS\HIROKI\DESKTOP\BASECROSS-MASTER\SIMPLSAMPLE015\DXSHARED\\" /ZI /nologo /W3 /WX- /sdl /Od /Oy- /D WIN32 /D _DEBUG /D _WINDOWS /D _UNICODE /D UNICODE /Gm /EHsc /RTC1 /MTd /GS /arch:SSE2 /fp:fast /Zc:wchar_t /Zc:forScope /Zc:inline /Yu"stdafx.h" /Fp"C:\USERS\HIROKI\DESKTOP\BASECROSS-MASTER\SIMPLSAMPLE015\TEMP\DX11\DEBUG\BASECROSSDX11.PCH" /Fo"C:\USERS\HIROKI\DESKTOP\BASECROSS-MASTER\SIMPLSAMPLE015\TEMP\DX11\DEBUG\\" /Fd"C:\USERS\HIROKI\DESKTOP\BASECROSS-MASTER\SIMPLSAMPLE015\TEMP\DX11\DEBUG\VC140.PDB" /Gd /TP /analyze- C:\USERS\HIROKI\DESKTOP\BASECROSS-MASTER\LIBS\BASELIB\DX11LIB\VERTEXHELPER.CPP
^C:\USERS\HIROKI\DESKTOP\BASECROSS-MASTER\LIBS\BASELIB\DXLIB\APP.CPP
/c /I"C:\USERS\HIROKI\DESKTOP\BASECROSS-MASTER\SIMPLSAMPLE015\BASECROSSDX11\\" /I"C:\USERS\HIROKI\DESKTOP\BASECROSS-MASTER\LIBS\BASELIB\DX11LIB\\" /I"C:\USERS\HIROKI\DESKTOP\BASECROSS-MASTER\LIBS\BASELIB\DXLIB\\" /I"C:\USERS\HIROKI\DESKTOP\BASECROSS-MASTER\SIMPLSAMPLE015\DXSHARED\\" /ZI /nologo /W3 /WX- /sdl /Od /Oy- /D WIN32 /D _DEBUG /D _WINDOWS /D _UNICODE /D UNICODE /Gm /EHsc /RTC1 /MTd /GS /arch:SSE2 /fp:fast /Zc:wchar_t /Zc:forScope /Zc:inline /Yu"stdafx.h" /Fp"C:\USERS\HIROKI\DESKTOP\BASECROSS-MASTER\SIMPLSAMPLE015\TEMP\DX11\DEBUG\BASECROSSDX11.PCH" /Fo"C:\USERS\HIROKI\DESKTOP\BASECROSS-MASTER\SIMPLSAMPLE015\TEMP\DX11\DEBUG\\" /Fd"C:\USERS\HIROKI\DESKTOP\BASECROSS-MASTER\SIMPLSAMPLE015\TEMP\DX11\DEBUG\VC140.PDB" /Gd /TP /analyze- C:\USERS\HIROKI\DESKTOP\BASECROSS-MASTER\LIBS\BASELIB\DXLIB\APP.CPP
^C:\USERS\HIROKI\DESKTOP\BASECROSS-MASTER\LIBS\BASELIB\DXLIB\BASEHELPER.CPP
/c /I"C:\USERS\HIROKI\DESKTOP\BASECROSS-MASTER\SIMPLSAMPLE015\BASECROSSDX11\\" /I"C:\USERS\HIROKI\DESKTOP\BASECROSS-MASTER\LIBS\BASELIB\DX11LIB\\" /I"C:\USERS\HIROKI\DESKTOP\BASECROSS-MASTER\LIBS\BASELIB\DXLIB\\" /I"C:\USERS\HIROKI\DESKTOP\BASECROSS-MASTER\SIMPLSAMPLE015\DXSHARED\\" /ZI /nologo /W3 /WX- /sdl /Od /Oy- /D WIN32 /D _DEBUG /D _WINDOWS /D _UNICODE /D UNICODE /Gm /EHsc /RTC1 /MTd /GS /arch:SSE2 /fp:fast /Zc:wchar_t /Zc:forScope /Zc:inline /Yu"stdafx.h" /Fp"C:\USERS\HIROKI\DESKTOP\BASECROSS-MASTER\SIMPLSAMPLE015\TEMP\DX11\DEBUG\BASECROSSDX11.PCH" /Fo"C:\USERS\HIROKI\DESKTOP\BASECROSS-MASTER\SIMPLSAMPLE015\TEMP\DX11\DEBUG\\" /Fd"C:\USERS\HIROKI\DESKTOP\BASECROSS-MASTER\SIMPLSAMPLE015\TEMP\DX11\DEBUG\VC140.PDB" /Gd /TP /analyze- C:\USERS\HIROKI\DESKTOP\BASECROSS-MASTER\LIBS\BASELIB\DXLIB\BASEHELPER.CPP
^C:\USERS\HIROKI\DESKTOP\BASECROSS-MASTER\LIBS\BASELIB\DXLIB\MESHHELPER.CPP
/c /I"C:\USERS\HIROKI\DESKTOP\BASECROSS-MASTER\SIMPLSAMPLE015\BASECROSSDX11\\" /I"C:\USERS\HIROKI\DESKTOP\BASECROSS-MASTER\LIBS\BASELIB\DX11LIB\\" /I"C:\USERS\HIROKI\DESKTOP\BASECROSS-MASTER\LIBS\BASELIB\DXLIB\\" /I"C:\USERS\HIROKI\DESKTOP\BASECROSS-MASTER\SIMPLSAMPLE015\DXSHARED\\" /ZI /nologo /W3 /WX- /sdl /Od /Oy- /D WIN32 /D _DEBUG /D _WINDOWS /D _UNICODE /D UNICODE /Gm /EHsc /RTC1 /MTd /GS /arch:SSE2 /fp:fast /Zc:wchar_t /Zc:forScope /Zc:inline /Yu"stdafx.h" /Fp"C:\USERS\HIROKI\DESKTOP\BASECROSS-MASTER\SIMPLSAMPLE015\TEMP\DX11\DEBUG\BASECROSSDX11.PCH" /Fo"C:\USERS\HIROKI\DESKTOP\BASECROSS-MASTER\SIMPLSAMPLE015\TEMP\DX11\DEBUG\\" /Fd"C:\USERS\HIROKI\DESKTOP\BASECROSS-MASTER\SIMPLSAMPLE015\TEMP\DX11\DEBUG\VC140.PDB" /Gd /TP /analyze- C:\USERS\HIROKI\DESKTOP\BASECROSS-MASTER\LIBS\BASELIB\DXLIB\MESHHELPER.CPP
^C:\USERS\HIROKI\DESKTOP\BASECROSS-MASTER\LIBS\BASELIB\DXLIB\XMLDOC.CPP
/c /I"C:\USERS\HIROKI\DESKTOP\BASECROSS-MASTER\SIMPLSAMPLE015\BASECROSSDX11\\" /I"C:\USERS\HIROKI\DESKTOP\BASECROSS-MASTER\LIBS\BASELIB\DX11LIB\\" /I"C:\USERS\HIROKI\DESKTOP\BASECROSS-MASTER\LIBS\BASELIB\DXLIB\\" /I"C:\USERS\HIROKI\DESKTOP\BASECROSS-MASTER\SIMPLSAMPLE015\DXSHARED\\" /ZI /nologo /W3 /WX- /sdl /Od /Oy- /D WIN32 /D _DEBUG /D _WINDOWS /D _UNICODE /D UNICODE /Gm /EHsc /RTC1 /MTd /GS /arch:SSE2 /fp:fast /Zc:wchar_t /Zc:forScope /Zc:inline /Yu"stdafx.h" /Fp"C:\USERS\HIROKI\DESKTOP\BASECROSS-MASTER\SIMPLSAMPLE015\TEMP\DX11\DEBUG\BASECROSSDX11.PCH" /Fo"C:\USERS\HIROKI\DESKTOP\BASECROSS-MASTER\SIMPLSAMPLE015\TEMP\DX11\DEBUG\\" /Fd"C:\USERS\HIROKI\DESKTOP\BASECROSS-MASTER\SIMPLSAMPLE015\TEMP\DX11\DEBUG\VC140.PDB" /Gd /TP /analyze- C:\USERS\HIROKI\DESKTOP\BASECROSS-MASTER\LIBS\BASELIB\DXLIB\XMLDOC.CPP
^C:\USERS\HIROKI\DESKTOP\BASECROSS-MASTER\SIMPLSAMPLE015\BASECROSSDX11\CHARACTER.CPP
/c /I"C:\USERS\HIROKI\DESKTOP\BASECROSS-MASTER\SIMPLSAMPLE015\BASECROSSDX11\\" /I"C:\USERS\HIROKI\DESKTOP\BASECROSS-MASTER\LIBS\BASELIB\DX11LIB\\" /I"C:\USERS\HIROKI\DESKTOP\BASECROSS-MASTER\LIBS\BASELIB\DXLIB\\" /I"C:\USERS\HIROKI\DESKTOP\BASECROSS-MASTER\SIMPLSAMPLE015\DXSHARED\\" /ZI /nologo /W3 /WX- /sdl /Od /Oy- /D WIN32 /D _DEBUG /D _WINDOWS /D _UNICODE /D UNICODE /Gm /EHsc /RTC1 /MTd /GS /arch:SSE2 /fp:fast /Zc:wchar_t /Zc:forScope /Zc:inline /Yu"stdafx.h" /Fp"C:\USERS\HIROKI\DESKTOP\BASECROSS-MASTER\SIMPLSAMPLE015\TEMP\DX11\DEBUG\BASECROSSDX11.PCH" /Fo"C:\USERS\HIROKI\DESKTOP\BASECROSS-MASTER\SIMPLSAMPLE015\TEMP\DX11\DEBUG\\" /Fd"C:\USERS\HIROKI\DESKTOP\BASECROSS-MASTER\SIMPLSAMPLE015\TEMP\DX11\DEBUG\VC140.PDB" /Gd /TP /analyze- C:\USERS\HIROKI\DESKTOP\BASECROSS-MASTER\SIMPLSAMPLE015\BASECROSSDX11\CHARACTER.CPP
^C:\USERS\HIROKI\DESKTOP\BASECROSS-MASTER\SIMPLSAMPLE015\BASECROSSDX11\COMMON\ACTION.CPP
/c /I"C:\USERS\HIROKI\DESKTOP\BASECROSS-MASTER\SIMPLSAMPLE015\BASECROSSDX11\\" /I"C:\USERS\HIROKI\DESKTOP\BASECROSS-MASTER\LIBS\BASELIB\DX11LIB\\" /I"C:\USERS\HIROKI\DESKTOP\BASECROSS-MASTER\LIBS\BASELIB\DXLIB\\" /I"C:\USERS\HIROKI\DESKTOP\BASECROSS-MASTER\SIMPLSAMPLE015\DXSHARED\\" /ZI /nologo /W3 /WX- /sdl /Od /Oy- /D WIN32 /D _DEBUG /D _WINDOWS /D _UNICODE /D UNICODE /Gm /EHsc /RTC1 /MTd /GS /arch:SSE2 /fp:fast /Zc:wchar_t /Zc:forScope /Zc:inline /Yu"stdafx.h" /Fp"C:\USERS\HIROKI\DESKTOP\BASECROSS-MASTER\SIMPLSAMPLE015\TEMP\DX11\DEBUG\BASECROSSDX11.PCH" /Fo"C:\USERS\HIROKI\DESKTOP\BASECROSS-MASTER\SIMPLSAMPLE015\TEMP\DX11\DEBUG\\" /Fd"C:\USERS\HIROKI\DESKTOP\BASECROSS-MASTER\SIMPLSAMPLE015\TEMP\DX11\DEBUG\VC140.PDB" /Gd /TP /analyze- C:\USERS\HIROKI\DESKTOP\BASECROSS-MASTER\SIMPLSAMPLE015\BASECROSSDX11\COMMON\ACTION.CPP
^C:\USERS\HIROKI\DESKTOP\BASECROSS-MASTER\SIMPLSAMPLE015\BASECROSSDX11\COMMON\COLLISION.CPP
/c /I"C:\USERS\HIROKI\DESKTOP\BASECROSS-MASTER\SIMPLSAMPLE015\BASECROSSDX11\\" /I"C:\USERS\HIROKI\DESKTOP\BASECROSS-MASTER\LIBS\BASELIB\DX11LIB\\" /I"C:\USERS\HIROKI\DESKTOP\BASECROSS-MASTER\LIBS\BASELIB\DXLIB\\" /I"C:\USERS\HIROKI\DESKTOP\BASECROSS-MASTER\SIMPLSAMPLE015\DXSHARED\\" /ZI /nologo /W3 /WX- /sdl /Od /Oy- /D WIN32 /D _DEBUG /D _WINDOWS /D _UNICODE /D UNICODE /Gm /EHsc /RTC1 /MTd /GS /arch:SSE2 /fp:fast /Zc:wchar_t /Zc:forScope /Zc:inline /Yu"stdafx.h" /Fp"C:\USERS\HIROKI\DESKTOP\BASECROSS-MASTER\SIMPLSAMPLE015\TEMP\DX11\DEBUG\BASECROSSDX11.PCH" /Fo"C:\USERS\HIROKI\DESKTOP\BASECROSS-MASTER\SIMPLSAMPLE015\TEMP\DX11\DEBUG\\" /Fd"C:\USERS\HIROKI\DESKTOP\BASECROSS-MASTER\SIMPLSAMPLE015\TEMP\DX11\DEBUG\VC140.PDB" /Gd /TP /analyze- C:\USERS\HIROKI\DESKTOP\BASECROSS-MASTER\SIMPLSAMPLE015\BASECROSSDX11\COMMON\COLLISION.CPP
^C:\USERS\HIROKI\DESKTOP\BASECROSS-MASTER\SIMPLSAMPLE015\BASECROSSDX11\COMMON\COMPONENTS.CPP
/c /I"C:\USERS\HIROKI\DESKTOP\BASECROSS-MASTER\SIMPLSAMPLE015\BASECROSSDX11\\" /I"C:\USERS\HIROKI\DESKTOP\BASECROSS-MASTER\LIBS\BASELIB\DX11LIB\\" /I"C:\USERS\HIROKI\DESKTOP\BASECROSS-MASTER\LIBS\BASELIB\DXLIB\\" /I"C:\USERS\HIROKI\DESKTOP\BASECROSS-MASTER\SIMPLSAMPLE015\DXSHARED\\" /ZI /nologo /W3 /WX- /sdl /Od /Oy- /D WIN32 /D _DEBUG /D _WINDOWS /D _UNICODE /D UNICODE /Gm /EHsc /RTC1 /MTd /GS /arch:SSE2 /fp:fast /Zc:wchar_t /Zc:forScope /Zc:inline /Yu"stdafx.h" /Fp"C:\USERS\HIROKI\DESKTOP\BASECROSS-MASTER\SIMPLSAMPLE015\TEMP\DX11\DEBUG\BASECROSSDX11.PCH" /Fo"C:\USERS\HIROKI\DESKTOP\BASECROSS-MASTER\SIMPLSAMPLE015\TEMP\DX11\DEBUG\\" /Fd"C:\USERS\HIROKI\DESKTOP\BASECROSS-MASTER\SIMPLSAMPLE015\TEMP\DX11\DEBUG\VC140.PDB" /Gd /TP /analyze- C:\USERS\HIROKI\DESKTOP\BASECROSS-MASTER\SIMPLSAMPLE015\BASECROSSDX11\COMMON\COMPONENTS.CPP
^C:\USERS\HIROKI\DESKTOP\BASECROSS-MASTER\SIMPLSAMPLE015\BASECROSSDX11\COMMON\DRAWCOMPONENTS.CPP
/c /I"C:\USERS\HIROKI\DESKTOP\BASECROSS-MASTER\SIMPLSAMPLE015\BASECROSSDX11\\" /I"C:\USERS\HIROKI\DESKTOP\BASECROSS-MASTER\LIBS\BASELIB\DX11LIB\\" /I"C:\USERS\HIROKI\DESKTOP\BASECROSS-MASTER\LIBS\BASELIB\DXLIB\\" /I"C:\USERS\HIROKI\DESKTOP\BASECROSS-MASTER\SIMPLSAMPLE015\DXSHARED\\" /ZI /nologo /W3 /WX- /sdl /Od /Oy- /D WIN32 /D _DEBUG /D _WINDOWS /D _UNICODE /D UNICODE /Gm /EHsc /RTC1 /MTd /GS /arch:SSE2 /fp:fast /Zc:wchar_t /Zc:forScope /Zc:inline /Yu"stdafx.h" /Fp"C:\USERS\HIROKI\DESKTOP\BASECROSS-MASTER\SIMPLSAMPLE015\TEMP\DX11\DEBUG\BASECROSSDX11.PCH" /Fo"C:\USERS\HIROKI\DESKTOP\BASECROSS-MASTER\SIMPLSAMPLE015\TEMP\DX11\DEBUG\\" /Fd"C:\USERS\HIROKI\DESKTOP\BASECROSS-MASTER\SIMPLSAMPLE015\TEMP\DX11\DEBUG\VC140.PDB" /Gd /TP /analyze- C:\USERS\HIROKI\DESKTOP\BASECROSS-MASTER\SIMPLSAMPLE015\BASECROSSDX11\COMMON\DRAWCOMPONENTS.CPP
^C:\USERS\HIROKI\DESKTOP\BASECROSS-MASTER\SIMPLSAMPLE015\BASECROSSDX11\COMMON\GAMEOBJECT.CPP
/c /I"C:\USERS\HIROKI\DESKTOP\BASECROSS-MASTER\SIMPLSAMPLE015\BASECROSSDX11\\" /I"C:\USERS\HIROKI\DESKTOP\BASECROSS-MASTER\LIBS\BASELIB\DX11LIB\\" /I"C:\USERS\HIROKI\DESKTOP\BASECROSS-MASTER\LIBS\BASELIB\DXLIB\\" /I"C:\USERS\HIROKI\DESKTOP\BASECROSS-MASTER\SIMPLSAMPLE015\DXSHARED\\" /ZI /nologo /W3 /WX- /sdl /Od /Oy- /D WIN32 /D _DEBUG /D _WINDOWS /D _UNICODE /D UNICODE /Gm /EHsc /RTC1 /MTd /GS /arch:SSE2 /fp:fast /Zc:wchar_t /Zc:forScope /Zc:inline /Yu"stdafx.h" /Fp"C:\USERS\HIROKI\DESKTOP\BASECROSS-MASTER\SIMPLSAMPLE015\TEMP\DX11\DEBUG\BASECROSSDX11.PCH" /Fo"C:\USERS\HIROKI\DESKTOP\BASECROSS-MASTER\SIMPLSAMPLE015\TEMP\DX11\DEBUG\\" /Fd"C:\USERS\HIROKI\DESKTOP\BASECROSS-MASTER\SIMPLSAMPLE015\TEMP\DX11\DEBUG\VC140.PDB" /Gd /TP /analyze- C:\USERS\HIROKI\DESKTOP\BASECROSS-MASTER\SIMPLSAMPLE015\BASECROSSDX11\COMMON\GAMEOBJECT.CPP
^C:\USERS\HIROKI\DESKTOP\BASECROSS-MASTER\SIMPLSAMPLE015\BASECROSSDX11\COMMON\GRAVITY.CPP
/c /I"C:\USERS\HIROKI\DESKTOP\BASECROSS-MASTER\SIMPLSAMPLE015\BASECROSSDX11\\" /I"C:\USERS\HIROKI\DESKTOP\BASECROSS-MASTER\LIBS\BASELIB\DX11LIB\\" /I"C:\USERS\HIROKI\DESKTOP\BASECROSS-MASTER\LIBS\BASELIB\DXLIB\\" /I"C:\USERS\HIROKI\DESKTOP\BASECROSS-MASTER\SIMPLSAMPLE015\DXSHARED\\" /ZI /nologo /W3 /WX- /sdl /Od /Oy- /D WIN32 /D _DEBUG /D _WINDOWS /D _UNICODE /D UNICODE /Gm /EHsc /RTC1 /MTd /GS /arch:SSE2 /fp:fast /Zc:wchar_t /Zc:forScope /Zc:inline /Yu"stdafx.h" /Fp"C:\USERS\HIROKI\DESKTOP\BASECROSS-MASTER\SIMPLSAMPLE015\TEMP\DX11\DEBUG\BASECROSSDX11.PCH" /Fo"C:\USERS\HIROKI\DESKTOP\BASECROSS-MASTER\SIMPLSAMPLE015\TEMP\DX11\DEBUG\\" /Fd"C:\USERS\HIROKI\DESKTOP\BASECROSS-MASTER\SIMPLSAMPLE015\TEMP\DX11\DEBUG\VC140.PDB" /Gd /TP /analyze- C:\USERS\HIROKI\DESKTOP\BASECROSS-MASTER\SIMPLSAMPLE015\BASECROSSDX11\COMMON\GRAVITY.CPP
^C:\USERS\HIROKI\DESKTOP\BASECROSS-MASTER\SIMPLSAMPLE015\BASECROSSDX11\COMMON\RIGIDBODY.CPP
/c /I"C:\USERS\HIROKI\DESKTOP\BASECROSS-MASTER\SIMPLSAMPLE015\BASECROSSDX11\\" /I"C:\USERS\HIROKI\DESKTOP\BASECROSS-MASTER\LIBS\BASELIB\DX11LIB\\" /I"C:\USERS\HIROKI\DESKTOP\BASECROSS-MASTER\LIBS\BASELIB\DXLIB\\" /I"C:\USERS\HIROKI\DESKTOP\BASECROSS-MASTER\SIMPLSAMPLE015\DXSHARED\\" /ZI /nologo /W3 /WX- /sdl /Od /Oy- /D WIN32 /D _DEBUG /D _WINDOWS /D _UNICODE /D UNICODE /Gm /EHsc /RTC1 /MTd /GS /arch:SSE2 /fp:fast /Zc:wchar_t /Zc:forScope /Zc:inline /Yu"stdafx.h" /Fp"C:\USERS\HIROKI\DESKTOP\BASECROSS-MASTER\SIMPLSAMPLE015\TEMP\DX11\DEBUG\BASECROSSDX11.PCH" /Fo"C:\USERS\HIROKI\DESKTOP\BASECROSS-MASTER\SIMPLSAMPLE015\TEMP\DX11\DEBUG\\" /Fd"C:\USERS\HIROKI\DESKTOP\BASECROSS-MASTER\SIMPLSAMPLE015\TEMP\DX11\DEBUG\VC140.PDB" /Gd /TP /analyze- C:\USERS\HIROKI\DESKTOP\BASECROSS-MASTER\SIMPLSAMPLE015\BASECROSSDX11\COMMON\RIGIDBODY.CPP
^C:\USERS\HIROKI\DESKTOP\BASECROSS-MASTER\SIMPLSAMPLE015\BASECROSSDX11\COMMON\SHAREDRESOURCES.CPP
/c /I"C:\USERS\HIROKI\DESKTOP\BASECROSS-MASTER\SIMPLSAMPLE015\BASECROSSDX11\\" /I"C:\USERS\HIROKI\DESKTOP\BASECROSS-MASTER\LIBS\BASELIB\DX11LIB\\" /I"C:\USERS\HIROKI\DESKTOP\BASECROSS-MASTER\LIBS\BASELIB\DXLIB\\" /I"C:\USERS\HIROKI\DESKTOP\BASECROSS-MASTER\SIMPLSAMPLE015\DXSHARED\\" /ZI /nologo /W3 /WX- /sdl /Od /Oy- /D WIN32 /D _DEBUG /D _WINDOWS /D _UNICODE /D UNICODE /Gm /EHsc /RTC1 /MTd /GS /arch:SSE2 /fp:fast /Zc:wchar_t /Zc:forScope /Zc:inline /Yu"stdafx.h" /Fp"C:\USERS\HIROKI\DESKTOP\BASECROSS-MASTER\SIMPLSAMPLE015\TEMP\DX11\DEBUG\BASECROSSDX11.PCH" /Fo"C:\USERS\HIROKI\DESKTOP\BASECROSS-MASTER\SIMPLSAMPLE015\TEMP\DX11\DEBUG\\" /Fd"C:\USERS\HIROKI\DESKTOP\BASECROSS-MASTER\SIMPLSAMPLE015\TEMP\DX11\DEBUG\VC140.PDB" /Gd /TP /analyze- C:\USERS\HIROKI\DESKTOP\BASECROSS-MASTER\SIMPLSAMPLE015\BASECROSSDX11\COMMON\SHAREDRESOURCES.CPP
^C:\USERS\HIROKI\DESKTOP\BASECROSS-MASTER\SIMPLSAMPLE015\BASECROSSDX11\COMMON\STRINGCOMPONENTS.CPP
/c /I"C:\USERS\HIROKI\DESKTOP\BASECROSS-MASTER\SIMPLSAMPLE015\BASECROSSDX11\\" /I"C:\USERS\HIROKI\DESKTOP\BASECROSS-MASTER\LIBS\BASELIB\DX11LIB\\" /I"C:\USERS\HIROKI\DESKTOP\BASECROSS-MASTER\LIBS\BASELIB\DXLIB\\" /I"C:\USERS\HIROKI\DESKTOP\BASECROSS-MASTER\SIMPLSAMPLE015\DXSHARED\\" /ZI /nologo /W3 /WX- /sdl /Od /Oy- /D WIN32 /D _DEBUG /D _WINDOWS /D _UNICODE /D UNICODE /Gm /EHsc /RTC1 /MTd /GS /arch:SSE2 /fp:fast /Zc:wchar_t /Zc:forScope /Zc:inline /Yu"stdafx.h" /Fp"C:\USERS\HIROKI\DESKTOP\BASECROSS-MASTER\SIMPLSAMPLE015\TEMP\DX11\DEBUG\BASECROSSDX11.PCH" /Fo"C:\USERS\HIROKI\DESKTOP\BASECROSS-MASTER\SIMPLSAMPLE015\TEMP\DX11\DEBUG\\" /Fd"C:\USERS\HIROKI\DESKTOP\BASECROSS-MASTER\SIMPLSAMPLE015\TEMP\DX11\DEBUG\VC140.PDB" /Gd /TP /analyze- C:\USERS\HIROKI\DESKTOP\BASECROSS-MASTER\SIMPLSAMPLE015\BASECROSSDX11\COMMON\STRINGCOMPONENTS.CPP
^C:\USERS\HIROKI\DESKTOP\BASECROSS-MASTER\SIMPLSAMPLE015\BASECROSSDX11\GAMESTAGE.CPP
/c /I"C:\USERS\HIROKI\DESKTOP\BASECROSS-MASTER\SIMPLSAMPLE015\BASECROSSDX11\\" /I"C:\USERS\HIROKI\DESKTOP\BASECROSS-MASTER\LIBS\BASELIB\DX11LIB\\" /I"C:\USERS\HIROKI\DESKTOP\BASECROSS-MASTER\LIBS\BASELIB\DXLIB\\" /I"C:\USERS\HIROKI\DESKTOP\BASECROSS-MASTER\SIMPLSAMPLE015\DXSHARED\\" /ZI /nologo /W3 /WX- /sdl /Od /Oy- /D WIN32 /D _DEBUG /D _WINDOWS /D _UNICODE /D UNICODE /Gm /EHsc /RTC1 /MTd /GS /arch:SSE2 /fp:fast /Zc:wchar_t /Zc:forScope /Zc:inline /Yu"stdafx.h" /Fp"C:\USERS\HIROKI\DESKTOP\BASECROSS-MASTER\SIMPLSAMPLE015\TEMP\DX11\DEBUG\BASECROSSDX11.PCH" /Fo"C:\USERS\HIROKI\DESKTOP\BASECROSS-MASTER\SIMPLSAMPLE015\TEMP\DX11\DEBUG\\" /Fd"C:\USERS\HIROKI\DESKTOP\BASECROSS-MASTER\SIMPLSAMPLE015\TEMP\DX11\DEBUG\VC140.PDB" /Gd /TP /analyze- C:\USERS\HIROKI\DESKTOP\BASECROSS-MASTER\SIMPLSAMPLE015\BASECROSSDX11\GAMESTAGE.CPP
^C:\USERS\HIROKI\DESKTOP\BASECROSS-MASTER\SIMPLSAMPLE015\BASECROSSDX11\PLAYER.CPP
/c /I"C:\USERS\HIROKI\DESKTOP\BASECROSS-MASTER\SIMPLSAMPLE015\BASECROSSDX11\\" /I"C:\USERS\HIROKI\DESKTOP\BASECROSS-MASTER\LIBS\BASELIB\DX11LIB\\" /I"C:\USERS\HIROKI\DESKTOP\BASECROSS-MASTER\LIBS\BASELIB\DXLIB\\" /I"C:\USERS\HIROKI\DESKTOP\BASECROSS-MASTER\SIMPLSAMPLE015\DXSHARED\\" /ZI /nologo /W3 /WX- /sdl /Od /Oy- /D WIN32 /D _DEBUG /D _WINDOWS /D _UNICODE /D UNICODE /Gm /EHsc /RTC1 /MTd /GS /arch:SSE2 /fp:fast /Zc:wchar_t /Zc:forScope /Zc:inline /Yu"stdafx.h" /Fp"C:\USERS\HIROKI\DESKTOP\BASECROSS-MASTER\SIMPLSAMPLE015\TEMP\DX11\DEBUG\BASECROSSDX11.PCH" /Fo"C:\USERS\HIROKI\DESKTOP\BASECROSS-MASTER\SIMPLSAMPLE015\TEMP\DX11\DEBUG\\" /Fd"C:\USERS\HIROKI\DESKTOP\BASECROSS-MASTER\SIMPLSAMPLE015\TEMP\DX11\DEBUG\VC140.PDB" /Gd /TP /analyze- C:\USERS\HIROKI\DESKTOP\BASECROSS-MASTER\SIMPLSAMPLE015\BASECROSSDX11\PLAYER.CPP
^C:\USERS\HIROKI\DESKTOP\BASECROSS-MASTER\SIMPLSAMPLE015\BASECROSSDX11\PROJECTSHADER.CPP
/c /I"C:\USERS\HIROKI\DESKTOP\BASECROSS-MASTER\SIMPLSAMPLE015\BASECROSSDX11\\" /I"C:\USERS\HIROKI\DESKTOP\BASECROSS-MASTER\LIBS\BASELIB\DX11LIB\\" /I"C:\USERS\HIROKI\DESKTOP\BASECROSS-MASTER\LIBS\BASELIB\DXLIB\\" /I"C:\USERS\HIROKI\DESKTOP\BASECROSS-MASTER\SIMPLSAMPLE015\DXSHARED\\" /ZI /nologo /W3 /WX- /sdl /Od /Oy- /D WIN32 /D _DEBUG /D _WINDOWS /D _UNICODE /D UNICODE /Gm /EHsc /RTC1 /MTd /GS /arch:SSE2 /fp:fast /Zc:wchar_t /Zc:forScope /Zc:inline /Yu"stdafx.h" /Fp"C:\USERS\HIROKI\DESKTOP\BASECROSS-MASTER\SIMPLSAMPLE015\TEMP\DX11\DEBUG\BASECROSSDX11.PCH" /Fo"C:\USERS\HIROKI\DESKTOP\BASECROSS-MASTER\SIMPLSAMPLE015\TEMP\DX11\DEBUG\\" /Fd"C:\USERS\HIROKI\DESKTOP\BASECROSS-MASTER\SIMPLSAMPLE015\TEMP\DX11\DEBUG\VC140.PDB" /Gd /TP /analyze- C:\USERS\HIROKI\DESKTOP\BASECROSS-MASTER\SIMPLSAMPLE015\BASECROSSDX11\PROJECTSHADER.CPP
^C:\USERS\HIROKI\DESKTOP\BASECROSS-MASTER\SIMPLSAMPLE015\BASECROSSDX11\SCENE.CPP
/c /I"C:\USERS\HIROKI\DESKTOP\BASECROSS-MASTER\SIMPLSAMPLE015\BASECROSSDX11\\" /I"C:\USERS\HIROKI\DESKTOP\BASECROSS-MASTER\LIBS\BASELIB\DX11LIB\\" /I"C:\USERS\HIROKI\DESKTOP\BASECROSS-MASTER\LIBS\BASELIB\DXLIB\\" /I"C:\USERS\HIROKI\DESKTOP\BASECROSS-MASTER\SIMPLSAMPLE015\DXSHARED\\" /ZI /nologo /W3 /WX- /sdl /Od /Oy- /D WIN32 /D _DEBUG /D _WINDOWS /D _UNICODE /D UNICODE /Gm /EHsc /RTC1 /MTd /GS /arch:SSE2 /fp:fast /Zc:wchar_t /Zc:forScope /Zc:inline /Yu"stdafx.h" /Fp"C:\USERS\HIROKI\DESKTOP\BASECROSS-MASTER\SIMPLSAMPLE015\TEMP\DX11\DEBUG\BASECROSSDX11.PCH" /Fo"C:\USERS\HIROKI\DESKTOP\BASECROSS-MASTER\SIMPLSAMPLE015\TEMP\DX11\DEBUG\\" /Fd"C:\USERS\HIROKI\DESKTOP\BASECROSS-MASTER\SIMPLSAMPLE015\TEMP\DX11\DEBUG\VC140.PDB" /Gd /TP /analyze- C:\USERS\HIROKI\DESKTOP\BASECROSS-MASTER\SIMPLSAMPLE015\BASECROSSDX11\SCENE.CPP
^C:\USERS\HIROKI\DESKTOP\BASECROSS-MASTER\SIMPLSAMPLE015\BASECROSSDX11\WINMAIN.CPP
/c /I"C:\USERS\HIROKI\DESKTOP\BASECROSS-MASTER\SIMPLSAMPLE015\BASECROSSDX11\\" /I"C:\USERS\HIROKI\DESKTOP\BASECROSS-MASTER\LIBS\BASELIB\DX11LIB\\" /I"C:\USERS\HIROKI\DESKTOP\BASECROSS-MASTER\LIBS\BASELIB\DXLIB\\" /I"C:\USERS\HIROKI\DESKTOP\BASECROSS-MASTER\SIMPLSAMPLE015\DXSHARED\\" /ZI /nologo /W3 /WX- /sdl /Od /Oy- /D WIN32 /D _DEBUG /D _WINDOWS /D _UNICODE /D UNICODE /Gm /EHsc /RTC1 /MTd /GS /arch:SSE2 /fp:fast /Zc:wchar_t /Zc:forScope /Zc:inline /Yu"stdafx.h" /Fp"C:\USERS\HIROKI\DESKTOP\BASECROSS-MASTER\SIMPLSAMPLE015\TEMP\DX11\DEBUG\BASECROSSDX11.PCH" /Fo"C:\USERS\HIROKI\DESKTOP\BASECROSS-MASTER\SIMPLSAMPLE015\TEMP\DX11\DEBUG\\" /Fd"C:\USERS\HIROKI\DESKTOP\BASECROSS-MASTER\SIMPLSAMPLE015\TEMP\DX11\DEBUG\VC140.PDB" /Gd /TP /analyze- C:\USERS\HIROKI\DESKTOP\BASECROSS-MASTER\SIMPLSAMPLE015\BASECROSSDX11\WINMAIN.CPP
